%YAML 1.1
%TAG !u! tag:unity3d.com,2011:
--- !u!74 &7400000
AnimationClip:
  m_ObjectHideFlags: 0
  m_CorrespondingSourceObject: {fileID: 0}
  m_PrefabInstance: {fileID: 0}
  m_PrefabAsset: {fileID: 0}
  m_Name: FirstGroundEnemy
  serializedVersion: 6
  m_Legacy: 0
  m_Compressed: 0
  m_UseHighQualityCurve: 1
  m_RotationCurves: []
  m_CompressedRotationCurves: []
  m_EulerCurves: []
  m_PositionCurves: []
  m_ScaleCurves: []
  m_FloatCurves: []
  m_PPtrCurves:
  - curve:
    - time: 0
      value: {fileID: -1063347491291453591, guid: d07e2ea0657c91c4a9718bba50e4b307, type: 3}
    - time: 0.1
      value: {fileID: 7831092853396375312, guid: d07e2ea0657c91c4a9718bba50e4b307, type: 3}
    - time: 0.16666667
      value: {fileID: 6037430330745596719, guid: d07e2ea0657c91c4a9718bba50e4b307, type: 3}
    - time: 0.28333333
      value: {fileID: 1295820604201456434, guid: d07e2ea0657c91c4a9718bba50e4b307, type: 3}
    - time: 0.38333333
      value: {fileID: -8391360626470335684, guid: d07e2ea0657c91c4a9718bba50e4b307, type: 3}
    - time: 0.45
      value: {fileID: 2529375459850737483, guid: d07e2ea0657c91c4a9718bba50e4b307, type: 3}
    - time: 0.55
      value: {fileID: -54183921391536493, guid: d07e2ea0657c91c4a9718bba50e4b307, type: 3}
    - time: 0.6166667
      value: {fileID: 972616114686400057, guid: d07e2ea0657c91c4a9718bba50e4b307, type: 3}
    - time: 0.71666664
      value: {fileID: -9041858645423248893, guid: d07e2ea0657c91c4a9718bba50e4b307, type: 3}
    - time: 0.8333333
      value: {fileID: 555232829961286408, guid: d07e2ea0657c91c4a9718bba50e4b307, type: 3}
    - time: 0.9
      value: {fileID: -7825968801834823504, guid: d07e2ea0657c91c4a9718bba50e4b307, type: 3}
    - time: 1
      value: {fileID: -2275076466933304303, guid: d07e2ea0657c91c4a9718bba50e4b307, type: 3}
    attribute: m_Sprite
    path: 
    classID: 212
    script: {fileID: 0}
  m_SampleRate: 60
  m_WrapMode: 0
  m_Bounds:
    m_Center: {x: 0, y: 0, z: 0}
    m_Extent: {x: 0, y: 0, z: 0}
  m_ClipBindingConstant:
    genericBindings:
    - serializedVersion: 2
      path: 0
      attribute: 0
      script: {fileID: 0}
      typeID: 212
      customType: 23
      isPPtrCurve: 1
    pptrCurveMapping:
    - {fileID: -1063347491291453591, guid: d07e2ea0657c91c4a9718bba50e4b307, type: 3}
    - {fileID: 7831092853396375312, guid: d07e2ea0657c91c4a9718bba50e4b307, type: 3}
    - {fileID: 6037430330745596719, guid: d07e2ea0657c91c4a9718bba50e4b307, type: 3}
    - {fileID: 1295820604201456434, guid: d07e2ea0657c91c4a9718bba50e4b307, type: 3}
    - {fileID: -8391360626470335684, guid: d07e2ea0657c91c4a9718bba50e4b307, type: 3}
    - {fileID: 2529375459850737483, guid: d07e2ea0657c91c4a9718bba50e4b307, type: 3}
    - {fileID: -54183921391536493, guid: d07e2ea0657c91c4a9718bba50e4b307, type: 3}
    - {fileID: 972616114686400057, guid: d07e2ea0657c91c4a9718bba50e4b307, type: 3}
    - {fileID: -9041858645423248893, guid: d07e2ea0657c91c4a9718bba50e4b307, type: 3}
    - {fileID: 555232829961286408, guid: d07e2ea0657c91c4a9718bba50e4b307, type: 3}
    - {fileID: -7825968801834823504, guid: d07e2ea0657c91c4a9718bba50e4b307, type: 3}
    - {fileID: -2275076466933304303, guid: d07e2ea0657c91c4a9718bba50e4b307, type: 3}
  m_AnimationClipSettings:
    serializedVersion: 2
    m_AdditiveReferencePoseClip: {fileID: 0}
    m_AdditiveReferencePoseTime: 0
    m_StartTime: 0
    m_StopTime: 1.0166667
    m_OrientationOffsetY: 0
    m_Level: 0
    m_CycleOffset: 0
    m_HasAdditiveReferencePose: 0
    m_LoopTime: 1
    m_LoopBlend: 0
    m_LoopBlendOrientation: 0
    m_LoopBlendPositionY: 0
    m_LoopBlendPositionXZ: 0
    m_KeepOriginalOrientation: 0
    m_KeepOriginalPositionY: 1
    m_KeepOriginalPositionXZ: 0
    m_HeightFromFeet: 0
    m_Mirror: 0
  m_EditorCurves: []
  m_EulerEditorCurves: []
  m_HasGenericRootTransform: 0
  m_HasMotionFloatCurves: 0
  m_Events: []
